<svg xmlns="http://www.w3.org/2000/svg" width="16" height="16" viewBox="0 0 16 16">
  <path fill-rule="evenodd" d="M2 4h3a1 1 0 1 1 0 2H2a1 1 0 1 1 0-2zm9 3h3a1 1 0 0 1 0 2h-3a1 1 0 0 1 0-2zm-9 3h3a1 1 0 0 1 0 2H2a1 1 0 0 1 0-2zm9 0h3a1 1 0 0 1 0 2h-3a1 1 0 0 1 0-2zm0-6h3a1 1 0 0 1 0 2h-3a1 1 0 0 1 0-2zM2 7h3a1 1 0 1 1 0 2H2a1 1 0 1 1 0-2zm6-6a1 1 0 0 1 1 1v12a1 1 0 0 1-2 0V2a1 1 0 0 1 1-1z"/>
</svg>
